…
enrichedPathways %>% spread(collection, sig)
```

```
## # A tibble: 28 x 13
##    disease        method         type   BTM    C1    C2    C3    C4    C5
##  *   <chr>         <chr>        <chr> <int> <int> <int> <int> <int> <int>
##  1   colon Concatenation   supervised     0     0     2    12     2     2
##  2   colon   DIABLO_full   supervised    16     1    43     0    37   118
##  3   colon   DIABLO_null   supervised     0     0     5     6     2     1
##  4   colon      Ensemble   supervised     0     0     3     2     3     1
##  5   colon          JIVE unsupervised     0     0     9    20     0    24
##  6   colon          MOFA unsupervised     9     0    44     0    13    68
##  7   colon         sGCCA unsupervised     0     0     3     4     0    27
##  8     gbm Concatenation   supervised     1     0   265    34    34   494
##  9     gbm   DIABLO_full   supervised    16     0   590    38    82   969
## 10     gbm   DIABLO_null   supervised     2     0   280    52    42   685
## # ... with 18 more rows, and 4 more variables: C6 <int>, C7 <int>,
## #   H <int>, TISSUES <int>
```
…
